…
homologene = read_tsv('homologene-files/homologene.data',
                      col_names = c('HID',
                                  'Taxonomy',
                                  'Gene.ID',
                                  'Gene.Symbol',
                                  'Protein.GI',
                                  'Protein.Accession'))

homologene

## # A tibble: 275,237 x 6
##      HID Taxonomy Gene.ID Gene.Symbol     Protein.GI Protein.Accession
##    <dbl>    <dbl>   <dbl> <chr>                <dbl> <chr>            
##  1     3     9606      34 ACADM              4557231 NP_000007.1      
##  2     3     9598  469356 ACADM            160961497 NP_001104286.1   
##  3     3     9544  705168 ACADM            109008502 XP_001101274.1   
##  4     3     9615  490207 ACADM            545503811 XP_005622188.1   
##  5     3     9913  505968 ACADM            115497690 NP_001068703.1   
##  6     3    10090   11364 Acadm              6680618 NP_031408.1      
##  7     3    10116   24158 Acadm            292494885 NP_058682.2      
##  8     3     7955  406283 acadm            390190229 NP_998175.2      
##  9     3     7227   38864 CG12262           24660351 NP_648149.1      
## 10     3     7165 1276346 AgaP_AGAP005662   58387602 XP_315683.2      
## # ... with 275,227 more rows
…
One small thing we can do to improve this situation is to manually replace the old gene symbols with new ones. Assuming the gene IDs are the same, we could just replace the old names with the new. However, gene IDs are also prone to changes3 and there is a whole different file that keeps track of these changes. We need to look into that file and update the gene IDs too.

download.file(url = "ftp://ftp.ncbi.nlm.nih.gov/gene/DATA/gene_history.gz", 
              destfile = 'homologene-files/gene_history.gz')

gene_history = read_tsv('homologene-files/gene_history.gz',
                        col_names = c('tax_id', 
                                      'GeneID',
                                      'Discontinued_GeneID',
                                      'Discontinued_Symbol',
                                      'Discontinue_Date'))

gene_history

## # A tibble: 11,165,348 x 5
##    tax_id GeneID Discontinued_GeneID Discontinued_Symbol Discontinue_Date
##     <dbl> <chr>                <dbl> <chr>                          <dbl>
##  1      9 -                  1246494 repA1                       20031113
##  2      9 -                  1246495 repA2                       20031113
##  3      9 -                  1246496 leuA                        20031113
##  4      9 -                  1246497 leuB                        20031113
##  5      9 -                  1246498 leuC                        20031113
##  6      9 -                  1246499 leuD                        20031113
##  7      9 -                  1246506 yqhA                        20031113
##  8      9 -                  1246507 repA2                       20031113
##  9      9 -                  1246508 repA1                       20031113
## 10     24 -                 24952829 jef                         20150716
## # ... with 11,165,338 more rows
…
